[{
		"id": "0",
		"image": "1",
		"name": "AIG",
		"title": "AMS - East",
		"Escalations": [],
		"CRs": [{
			"name": "ALM11.52",
			"title": "QCIM76534201",
			"ExcelReport": "Error On",
			"Connection": "Object reference not set to an instance of an object",
			"Severity": "Urgents",
			"Status": "Open",
			"Date": "21 in Oct. 2014",
			"EscalationStatus": "Yellow",
			"Owner": "rita.avni@hpe.com",
			"Resolution": "Fixing risk assessment: Hight/Medium/Low"
		}, {
			"name": "ALM12.52",
			"title": "QCIM76534202",
			"ExcelReport": "Error On",
			"Connection": "Object reference not set to an instance of an object",
			"Severity": "Urgents",
			"Status": "Open",
			"Date": "21 in Oct. 2014",
			"EscalationStatus": "Yellow",
			"Owner": "rita.avni@hpe.com",
			"Resolution": "Fixing risk assessment: Hight/Medium/Low"
		}, {
			"name": "ALM13.52",
			"title": "QCIM76534203",
			"ExcelReport": "Error On",
			"Connection": "Object reference not set to an instance of an object",
			"Severity": "Urgents",
			"Status": "Open",
			"Date": "21 in Oct. 2014",
			"EscalationStatus": "Yellow",
			"Owner": "rita.avni@hpe.com",
			"Resolution": "Fixing risk assessment: Hight/Medium/Low"
		}],

		"Ers": [{
			"name": "ALM11.52",
			"title": "QCIM7653423",
			"ExcelReport": "Error On",
			"Connection": "Object reference not set to an instance of an object",
			"Severity": "Urgents",
			"Status": "Open",
			"Date": "21 in Oct. 2014",
			"EscalationStatus": "Yellow",
			"Owner": "rita.avni@hpe.com",
			"Resolution": "Fixing risk assessment: Hight/Medium/Low"
		}, {
			"name": "ALM12.52",
			"title": "QCIM7653424",
			"ExcelReport": "Error On",
			"Connection": "Object reference not set to an instance of an object",
			"Severity": "Urgents",
			"Status": "Open",
			"Date": "21 in Oct. 2014",
			"EscalationStatus": "Yellow",
			"Owner": "rita.avni@hpe.com",
			"Resolution": "Fixing risk assessment: Hight/Medium/Low"
		}, {
			"name": "ALM13.52",
			"title": "QCIM7653425",
			"ExcelReport": "Error On",
			"Connection": "Object reference not set to an instance of an object",
			"Severity": "Urgents",
			"Status": "Open",
			"Date": "21 in Oct. 2014",
			"EscalationStatus": "Yellow",
			"Owner": "rita.avni@hpe.com",
			"Resolution": "Fixing risk assessment: Hight/Medium/Low"
		}],
		"Support": [{
			"name": "ALM11.52",
			"title": "QCIM76534207",
			"ExcelReport": "Error On",
			"Connection": "Object reference not set to an instance of an object",
			"Severity": "Urgents",
			"Status": "Open",
			"Date": "21 in Oct. 2014",
			"EscalationStatus": "Yellow",
			"Owner": "rita.avni@hpe.com",
			"Resolution": "Fixing risk assessment: Hight/Medium/Low"
		}, {
			"name": "ALM12.52",
			"title": "QCIM7653428",
			"ExcelReport": "Error On",
			"Connection": "Object reference not set to an instance of an object",
			"Severity": "Urgents",
			"Status": "Open",
			"Date": "21 in Oct. 2014",
			"EscalationStatus": "Yellow",
			"Owner": "rita.avni@hpe.com",
			"Resolution": "Fixing risk assessment: Hight/Medium/Low"
		}, {
			"name": "ALM13.52",
			"title": "QCIM7653429",
			"ExcelReport": "Error On",
			"Connection": "Object reference not set to an instance of an object",
			"Severity": "Urgents",
			"Status": "Open",
			"Date": "21 in Oct. 2014",
			"EscalationStatus": "Yellow",
			"Owner": "rita.avni@hpe.com",
			"Resolution": "Fixing risk assessment: Hight/Medium/Low"
		}],
		"Contacts": [{
					"category": "HPE Stakeholders1",
					"contacts": [{
						"name": "Rita Avni0",
						"title": "R&D Program Manager",
						"Mail": "Ritaavni@gmail.com",
						"Phone": "0509888882"
					}, {
						"name": "Rita Avni1",
						"title": "R&D Program Manager",
						"Mail": "Ritaavni@gmail.com",
						"Phone": "0509888882"
					}, {
						"name": "Rita Avni2",
						"title": "R&D Program Manager",
						"Mail": "Ritaavni@gmail.com",
						"Phone": "0509888882"
					}, {
						"name": "Rita Avni3",
						"title": "R&D Program Manager",
						"Mail": "Ritaavni@gmail.com",
						"Phone": "0509888882"
					}, {
						"name": "Rita Avni4",
						"title": "R&D Program Manager",
						"Mail": "Ritaavni@gmail.com",
						"Phone": "0509888882"
					}]
				}, {
					"category": "HPE Stakeholders2",
					"contacts": [{
						"name": "Rita Avni2",
						"title": "R&D Program Manager",
						"Mail": "Ritaavni@gmail.com",
						"Phone": "0509888882"
					}, {
						"name": "Rita Avni1",
						"title": "R&D Program Manager",
						"Mail": "Ritaavni@gmail.com",
						"Phone": "0509888882"
					}, {
						"name": "Rita Avni2",
						"title": "R&D Program Manager",
						"Mail": "Ritaavni@gmail.com",
						"Phone": "0509888882"
					}, {
						"name": "Rita Avni3",
						"title": "R&D Program Manager",
						"Mail": "Ritaavni@gmail.com",
						"Phone": "0509888882"
					}, {
						"name": "Rita Avni4",
						"title": "R&D Program Manager",
						"Mail": "Ritaavni@gmail.com",
						"Phone": "0509888882"
					}]
				}, {
					"category": "HPE Stakeholders3",
					"contacts": [{
						"name": "Rita Avni3",
						"title": "R&D Program Manager",
						"Mail": "Ritaavni@gmail.com",
						"Phone": "0509888882"
					}, {
						"name": "Rita Avni1",
						"title": "R&D Program Manager",
						"Mail": "Ritaavni@gmail.com",
						"Phone": "0509888882"
					}, {
						"name": "Rita Avni2",
						"title": "R&D Program Manager",
						"Mail": "Ritaavni@gmail.com",
						"Phone": "0509888882"
					}, {
						"name": "Rita Avni3",
						"title": "R&D Program Manager",
						"Mail": "Ritaavni@gmail.com",
						"Phone": "0509888882"
					}, {
						"name": "Rita Avni4",
						"title": "R&D Program Manager",
						"Mail": "Ritaavni@gmail.com",
						"Phone": "0509888882"
					}]
				}]},
				{
		"id": "1",
		"image": "2",
		"name": "AT&T",
		"title": "AMS - East",
		"Escalations": [],
		"CRs": [{
			"name": "ALM11.52",
			"title": "QCIM7653420",
			"ExcelReport": "Error On",
			"Connection": "Object reference not set to an instance of an object",
			"Severity": "Urgents",
			"Status": "Open",
			"Date": "21 in Oct. 2014",
			"EscalationStatus": "Yellow",
			"Owner": "rita.avni@hpe.com",
			"Resolution": "Fixing risk assessment: Hight/Medium/Low"
		}, {
			"name": "ALM12.52",
			"title": "QCIM7653420",
			"ExcelReport": "Error On",
			"Connection": "Object reference not set to an instance of an object",
			"Severity": "Urgents",
			"Status": "Open",
			"Date": "21 in Oct. 2014",
			"EscalationStatus": "Yellow",
			"Owner": "rita.avni@hpe.com",
			"Resolution": "Fixing risk assessment: Hight/Medium/Low"
		}, {
			"name": "ALM13.52",
			"title": "QCIM7653420",
			"ExcelReport": "Error On",
			"Connection": "Object reference not set to an instance of an object",
			"Severity": "Urgents",
			"Status": "Open",
			"Date": "21 in Oct. 2014",
			"EscalationStatus": "Yellow",
			"Owner": "rita.avni@hpe.com",
			"Resolution": "Fixing risk assessment: Hight/Medium/Low"
		}],

		"Ers": [{
			"name": "ALM11.52",
			"title": "QCIM7653420",
			"ExcelReport": "Error On",
			"Connection": "Object reference not set to an instance of an object",
			"Severity": "Urgents",
			"Status": "Open",
			"Date": "21 in Oct. 2014",
			"EscalationStatus": "Yellow",
			"Owner": "rita.avni@hpe.com",
			"Resolution": "Fixing risk assessment: Hight/Medium/Low"
		}, {
			"name": "ALM12.52",
			"title": "QCIM7653420",
			"ExcelReport": "Error On",
			"Connection": "Object reference not set to an instance of an object",
			"Severity": "Urgents",
			"Status": "Open",
			"Date": "21 in Oct. 2014",
			"EscalationStatus": "Yellow",
			"Owner": "rita.avni@hpe.com",
			"Resolution": "Fixing risk assessment: Hight/Medium/Low"
		}, {
			"name": "ALM13.52",
			"title": "QCIM7653420",
			"ExcelReport": "Error On",
			"Connection": "Object reference not set to an instance of an object",
			"Severity": "Urgents",
			"Status": "Open",
			"Date": "21 in Oct. 2014",
			"EscalationStatus": "Yellow",
			"Owner": "rita.avni@hpe.com",
			"Resolution": "Fixing risk assessment: Hight/Medium/Low"
		}],
		"Support": [{
			"name": "ALM11.52",
			"title": "QCIM7653420",
			"ExcelReport": "Error On",
			"Connection": "Object reference not set to an instance of an object",
			"Severity": "Urgents",
			"Status": "Open",
			"Date": "21 in Oct. 2014",
			"EscalationStatus": "Yellow",
			"Owner": "rita.avni@hpe.com",
			"Resolution": "Fixing risk assessment: Hight/Medium/Low"
		}, {
			"name": "ALM12.52",
			"title": "QCIM7653420",
			"ExcelReport": "Error On",
			"Connection": "Object reference not set to an instance of an object",
			"Severity": "Urgents",
			"Status": "Open",
			"Date": "21 in Oct. 2014",
			"EscalationStatus": "Yellow",
			"Owner": "rita.avni@hpe.com",
			"Resolution": "Fixing risk assessment: Hight/Medium/Low"
		}, {
			"name": "ALM13.52",
			"title": "QCIM7653420",
			"ExcelReport": "Error On",
			"Connection": "Object reference not set to an instance of an object",
			"Severity": "Urgents",
			"Status": "Open",
			"Date": "21 in Oct. 2014",
			"EscalationStatus": "Yellow",
			"Owner": "rita.avni@hpe.com",
			"Resolution": "Fixing risk assessment: Hight/Medium/Low"
		}],
		"Contacts": [{
					"category": "HPE Stakeholders",
					"contacts": [{
						"name": "Rita Avni",
						"title": "R&D Program Manager",
						"Mail": "Ritaavni@gmail.com",
						"Phone": "0509888882"
					}, {
						"name": "Rita Avni1",
						"title": "R&D Program Manager",
						"Mail": "Ritaavni@gmail.com",
						"Phone": "0509888882"
					}, {
						"name": "Rita Avni2",
						"title": "R&D Program Manager",
						"Mail": "Ritaavni@gmail.com",
						"Phone": "0509888882"
					}, {
						"name": "Rita Avni3",
						"title": "R&D Program Manager",
						"Mail": "Ritaavni@gmail.com",
						"Phone": "0509888882"
					}, {
						"name": "Rita Avni4",
						"title": "R&D Program Manager",
						"Mail": "Ritaavni@gmail.com",
						"Phone": "0509888882"
					}]
				}, {
					"category": "HPE Stakeholders",
					"contacts": [{
						"name": "Rita Avni",
						"title": "R&D Program Manager",
						"Mail": "Ritaavni@gmail.com",
						"Phone": "0509888882"
					}, {
						"name": "Rita Avni1",
						"title": "R&D Program Manager",
						"Mail": "Ritaavni@gmail.com",
						"Phone": "0509888882"
					}, {
						"name": "Rita Avni2",
						"title": "R&D Program Manager",
						"Mail": "Ritaavni@gmail.com",
						"Phone": "0509888882"
					}, {
						"name": "Rita Avni3",
						"title": "R&D Program Manager",
						"Mail": "Ritaavni@gmail.com",
						"Phone": "0509888882"
					}, {
						"name": "Rita Avni4",
						"title": "R&D Program Manager",
						"Mail": "Ritaavni@gmail.com",
						"Phone": "0509888882"
					}]
				}, {
					"category": "HPE Stakeholders",
					"contacts": [{
						"name": "Rita Avni",
						"title": "R&D Program Manager",
						"Mail": "Ritaavni@gmail.com",
						"Phone": "0509888882"
					}, {
						"name": "Rita Avni1",
						"title": "R&D Program Manager",
						"Mail": "Ritaavni@gmail.com",
						"Phone": "0509888882"
					}, {
						"name": "Rita Avni2",
						"title": "R&D Program Manager",
						"Mail": "Ritaavni@gmail.com",
						"Phone": "0509888882"
					}, {
						"name": "Rita Avni3",
						"title": "R&D Program Manager",
						"Mail": "Ritaavni@gmail.com",
						"Phone": "0509888882"
					}, {
						"name": "Rita Avni4",
						"title": "R&D Program Manager",
						"Mail": "Ritaavni@gmail.com",
						"Phone": "0509888882"
					}]
				}]},
				{
		"id": "2",
		"image": "3",
		"name": "ADP1",
		"title": "AMS - East1",
		"Escalations": [],
		"CRs": [{
			"name": "ALM11.521",
			"title": "QCIM76534201",
			"ExcelReport": "Error On1",
			"Connection": "Object reference not set to an instance of an object",
			"Severity": "Urgents",
			"Status": "Open",
			"Date": "21 in Oct. 2014",
			"EscalationStatus": "Yellow",
			"Owner": "rita.avni@hpe.com",
			"Resolution": "Fixing risk assessment: Hight/Medium/Low"
		}, {
			"name": "ALM12.52",
			"title": "QCIM7653420",
			"ExcelReport": "Error On",
			"Connection": "Object reference not set to an instance of an object",
			"Severity": "Urgents",
			"Status": "Open",
			"Date": "21 in Oct. 2014",
			"EscalationStatus": "Yellow",
			"Owner": "rita.avni@hpe.com",
			"Resolution": "Fixing risk assessment: Hight/Medium/Low"
		}, {
			"name": "ALM13.52",
			"title": "QCIM7653420",
			"ExcelReport": "Error On",
			"Connection": "Object reference not set to an instance of an object",
			"Severity": "Urgents",
			"Status": "Open",
			"Date": "21 in Oct. 2014",
			"EscalationStatus": "Yellow",
			"Owner": "rita.avni@hpe.com",
			"Resolution": "Fixing risk assessment: Hight/Medium/Low"
		}],

		"Ers": [{
			"name": "ALM11.52",
			"title": "QCIM7653420",
			"ExcelReport": "Error On",
			"Connection": "Object reference not set to an instance of an object",
			"Severity": "Urgents",
			"Status": "Open",
			"Date": "21 in Oct. 2014",
			"EscalationStatus": "Yellow",
			"Owner": "rita.avni@hpe.com",
			"Resolution": "Fixing risk assessment: Hight/Medium/Low"
		}, {
			"name": "ALM12.52",
			"title": "QCIM7653420",
			"ExcelReport": "Error On",
			"Connection": "Object reference not set to an instance of an object",
			"Severity": "Urgents",
			"Status": "Open",
			"Date": "21 in Oct. 2014",
			"EscalationStatus": "Yellow",
			"Owner": "rita.avni@hpe.com",
			"Resolution": "Fixing risk assessment: Hight/Medium/Low"
		}, {
			"name": "ALM13.52",
			"title": "QCIM7653420",
			"ExcelReport": "Error On",
			"Connection": "Object reference not set to an instance of an object",
			"Severity": "Urgents",
			"Status": "Open",
			"Date": "21 in Oct. 2014",
			"EscalationStatus": "Yellow",
			"Owner": "rita.avni@hpe.com",
			"Resolution": "Fixing risk assessment: Hight/Medium/Low"
		}],
		"Support": [{
			"name": "ALM11.52",
			"title": "QCIM7653420",
			"ExcelReport": "Error On",
			"Connection": "Object reference not set to an instance of an object",
			"Severity": "Urgents",
			"Status": "Open",
			"Date": "21 in Oct. 2014",
			"EscalationStatus": "Yellow",
			"Owner": "rita.avni@hpe.com",
			"Resolution": "Fixing risk assessment: Hight/Medium/Low"
		}, {
			"name": "ALM12.52",
			"title": "QCIM7653420",
			"ExcelReport": "Error On",
			"Connection": "Object reference not set to an instance of an object",
			"Severity": "Urgents",
			"Status": "Open",
			"Date": "21 in Oct. 2014",
			"EscalationStatus": "Yellow",
			"Owner": "rita.avni@hpe.com",
			"Resolution": "Fixing risk assessment: Hight/Medium/Low"
		}, {
			"name": "ALM13.52",
			"title": "QCIM7653420",
			"ExcelReport": "Error On",
			"Connection": "Object reference not set to an instance of an object",
			"Severity": "Urgents",
			"Status": "Open",
			"Date": "21 in Oct. 2014",
			"EscalationStatus": "Yellow",
			"Owner": "rita.avni@hpe.com",
			"Resolution": "Fixing risk assessment: Hight/Medium/Low"
		}],
		"Contacts": [{
					"category": "HPE Stakeholders",
					"contacts": [{
						"name": "Rita Avni",
						"title": "R&D Program Manager",
						"Mail": "Ritaavni@gmail.com",
						"Phone": "0509888882"
					}, {
						"name": "Rita Avni1",
						"title": "R&D Program Manager",
						"Mail": "Ritaavni@gmail.com",
						"Phone": "0509888882"
					}, {
						"name": "Rita Avni2",
						"title": "R&D Program Manager",
						"Mail": "Ritaavni@gmail.com",
						"Phone": "0509888882"
					}, {
						"name": "Rita Avni3",
						"title": "R&D Program Manager",
						"Mail": "Ritaavni@gmail.com",
						"Phone": "0509888882"
					}, {
						"name": "Rita Avni4",
						"title": "R&D Program Manager",
						"Mail": "Ritaavni@gmail.com",
						"Phone": "0509888882"
					}]
				}, {
					"category": "HPE Stakeholders",
					"contacts": [{
						"name": "Rita Avni",
						"title": "R&D Program Manager",
						"Mail": "Ritaavni@gmail.com",
						"Phone": "0509888882"
					}, {
						"name": "Rita Avni1",
						"title": "R&D Program Manager",
						"Mail": "Ritaavni@gmail.com",
						"Phone": "0509888882"
					}, {
						"name": "Rita Avni2",
						"title": "R&D Program Manager",
						"Mail": "Ritaavni@gmail.com",
						"Phone": "0509888882"
					}, {
						"name": "Rita Avni3",
						"title": "R&D Program Manager",
						"Mail": "Ritaavni@gmail.com",
						"Phone": "0509888882"
					}, {
						"name": "Rita Avni4",
						"title": "R&D Program Manager",
						"Mail": "Ritaavni@gmail.com",
						"Phone": "0509888882"
					}]
				}, {
					"category": "HPE Stakeholders",
					"contacts": [{
						"name": "Rita Avni",
						"title": "R&D Program Manager",
						"Mail": "Ritaavni@gmail.com",
						"Phone": "0509888882"
					}, {
						"name": "Rita Avni1",
						"title": "R&D Program Manager",
						"Mail": "Ritaavni@gmail.com",
						"Phone": "0509888882"
					}, {
						"name": "Rita Avni2",
						"title": "R&D Program Manager",
						"Mail": "Ritaavni@gmail.com",
						"Phone": "0509888882"
					}, {
						"name": "Rita Avni3",
						"title": "R&D Program Manager",
						"Mail": "Ritaavni@gmail.com",
						"Phone": "0509888882"
					}, {
						"name": "Rita Avni4",
						"title": "R&D Program Manager",
						"Mail": "Ritaavni@gmail.com",
						"Phone": "0509888882"
					}]
				}]},
				{
		"id": "3",
		"image": "4",
		"name": "Garmin",
		"title": "AMS - US Centtral",
		"Escalations": [],
		"CRs": [{
			"name": "ALM11.52",
			"title": "QCIM76534201",
			"ExcelReport": "Error On",
			"Connection": "Object reference not set to an instance of an object",
			"Severity": "Urgents",
			"Status": "Open",
			"Date": "21 in Oct. 2014",
			"EscalationStatus": "Yellow",
			"Owner": "rita.avni@hpe.com",
			"Resolution": "Fixing risk assessment: Hight/Medium/Low"
		}, {
			"name": "ALM12.52",
			"title": "QCIM76534202",
			"ExcelReport": "Error On",
			"Connection": "Object reference not set to an instance of an object",
			"Severity": "Urgents",
			"Status": "Open",
			"Date": "21 in Oct. 2014",
			"EscalationStatus": "Yellow",
			"Owner": "rita.avni@hpe.com",
			"Resolution": "Fixing risk assessment: Hight/Medium/Low"
		}, {
			"name": "ALM13.52",
			"title": "QCIM76534203",
			"ExcelReport": "Error On",
			"Connection": "Object reference not set to an instance of an object",
			"Severity": "Urgents",
			"Status": "Open",
			"Date": "21 in Oct. 2014",
			"EscalationStatus": "Yellow",
			"Owner": "rita.avni@hpe.com",
			"Resolution": "Fixing risk assessment: Hight/Medium/Low"
		}],

		"Ers": [{
			"name": "ALM11.52",
			"title": "QCIM7653423",
			"ExcelReport": "Error On",
			"Connection": "Object reference not set to an instance of an object",
			"Severity": "Urgents",
			"Status": "Open",
			"Date": "21 in Oct. 2014",
			"EscalationStatus": "Yellow",
			"Owner": "rita.avni@hpe.com",
			"Resolution": "Fixing risk assessment: Hight/Medium/Low"
		}, {
			"name": "ALM12.52",
			"title": "QCIM7653424",
			"ExcelReport": "Error On",
			"Connection": "Object reference not set to an instance of an object",
			"Severity": "Urgents",
			"Status": "Open",
			"Date": "21 in Oct. 2014",
			"EscalationStatus": "Yellow",
			"Owner": "rita.avni@hpe.com",
			"Resolution": "Fixing risk assessment: Hight/Medium/Low"
		}, {
			"name": "ALM13.52",
			"title": "QCIM7653425",
			"ExcelReport": "Error On",
			"Connection": "Object reference not set to an instance of an object",
			"Severity": "Urgents",
			"Status": "Open",
			"Date": "21 in Oct. 2014",
			"EscalationStatus": "Yellow",
			"Owner": "rita.avni@hpe.com",
			"Resolution": "Fixing risk assessment: Hight/Medium/Low"
		}],
		"Support": [{
			"name": "ALM11.52",
			"title": "QCIM76534207",
			"ExcelReport": "Error On",
			"Connection": "Object reference not set to an instance of an object",
			"Severity": "Urgents",
			"Status": "Open",
			"Date": "21 in Oct. 2014",
			"EscalationStatus": "Yellow",
			"Owner": "rita.avni@hpe.com",
			"Resolution": "Fixing risk assessment: Hight/Medium/Low"
		}, {
			"name": "ALM12.52",
			"title": "QCIM7653428",
			"ExcelReport": "Error On",
			"Connection": "Object reference not set to an instance of an object",
			"Severity": "Urgents",
			"Status": "Open",
			"Date": "21 in Oct. 2014",
			"EscalationStatus": "Yellow",
			"Owner": "rita.avni@hpe.com",
			"Resolution": "Fixing risk assessment: Hight/Medium/Low"
		}, {
			"name": "ALM13.52",
			"title": "QCIM7653429",
			"ExcelReport": "Error On",
			"Connection": "Object reference not set to an instance of an object",
			"Severity": "Urgents",
			"Status": "Open",
			"Date": "21 in Oct. 2014",
			"EscalationStatus": "Yellow",
			"Owner": "rita.avni@hpe.com",
			"Resolution": "Fixing risk assessment: Hight/Medium/Low"
		}],
		"Contacts": [{
					"category": "HPE Stakeholders1",
					"contacts": [{
						"name": "Rita Avni0",
						"title": "R&D Program Manager",
						"Mail": "Ritaavni@gmail.com",
						"Phone": "0509888882"
					}, {
						"name": "Rita Avni1",
						"title": "R&D Program Manager",
						"Mail": "Ritaavni@gmail.com",
						"Phone": "0509888882"
					}, {
						"name": "Rita Avni2",
						"title": "R&D Program Manager",
						"Mail": "Ritaavni@gmail.com",
						"Phone": "0509888882"
					}, {
						"name": "Rita Avni3",
						"title": "R&D Program Manager",
						"Mail": "Ritaavni@gmail.com",
						"Phone": "0509888882"
					}, {
						"name": "Rita Avni4",
						"title": "R&D Program Manager",
						"Mail": "Ritaavni@gmail.com",
						"Phone": "0509888882"
					}]
				}, {
					"category": "HPE Stakeholders2",
					"contacts": [{
						"name": "Rita Avni2",
						"title": "R&D Program Manager",
						"Mail": "Ritaavni@gmail.com",
						"Phone": "0509888882"
					}, {
						"name": "Rita Avni1",
						"title": "R&D Program Manager",
						"Mail": "Ritaavni@gmail.com",
						"Phone": "0509888882"
					}, {
						"name": "Rita Avni2",
						"title": "R&D Program Manager",
						"Mail": "Ritaavni@gmail.com",
						"Phone": "0509888882"
					}, {
						"name": "Rita Avni3",
						"title": "R&D Program Manager",
						"Mail": "Ritaavni@gmail.com",
						"Phone": "0509888882"
					}, {
						"name": "Rita Avni4",
						"title": "R&D Program Manager",
						"Mail": "Ritaavni@gmail.com",
						"Phone": "0509888882"
					}]
				}, {
					"category": "HPE Stakeholders3",
					"contacts": [{
						"name": "Rita Avni3",
						"title": "R&D Program Manager",
						"Mail": "Ritaavni@gmail.com",
						"Phone": "0509888882"
					}, {
						"name": "Rita Avni1",
						"title": "R&D Program Manager",
						"Mail": "Ritaavni@gmail.com",
						"Phone": "0509888882"
					}, {
						"name": "Rita Avni2",
						"title": "R&D Program Manager",
						"Mail": "Ritaavni@gmail.com",
						"Phone": "0509888882"
					}, {
						"name": "Rita Avni3",
						"title": "R&D Program Manager",
						"Mail": "Ritaavni@gmail.com",
						"Phone": "0509888882"
					}, {
						"name": "Rita Avni4",
						"title": "R&D Program Manager",
						"Mail": "Ritaavni@gmail.com",
						"Phone": "0509888882"
					}]
				}]},
				{
		"id": "4",
		"image": "5",
		"name": "General Motors",
		"title": "AMS - US Central",
		"Escalations": [],
		"CRs": [{
			"name": "ALM11.52",
			"title": "QCIM7653420",
			"ExcelReport": "Error On",
			"Connection": "Object reference not set to an instance of an object",
			"Severity": "Urgents",
			"Status": "Open",
			"Date": "21 in Oct. 2014",
			"EscalationStatus": "Yellow",
			"Owner": "rita.avni@hpe.com",
			"Resolution": "Fixing risk assessment: Hight/Medium/Low"
		}, {
			"name": "ALM12.52",
			"title": "QCIM7653420",
			"ExcelReport": "Error On",
			"Connection": "Object reference not set to an instance of an object",
			"Severity": "Urgents",
			"Status": "Open",
			"Date": "21 in Oct. 2014",
			"EscalationStatus": "Yellow",
			"Owner": "rita.avni@hpe.com",
			"Resolution": "Fixing risk assessment: Hight/Medium/Low"
		}, {
			"name": "ALM13.52",
			"title": "QCIM7653420",
			"ExcelReport": "Error On",
			"Connection": "Object reference not set to an instance of an object",
			"Severity": "Urgents",
			"Status": "Open",
			"Date": "21 in Oct. 2014",
			"EscalationStatus": "Yellow",
			"Owner": "rita.avni@hpe.com",
			"Resolution": "Fixing risk assessment: Hight/Medium/Low"
		}],

		"Ers": [{
			"name": "ALM11.52",
			"title": "QCIM7653420",
			"ExcelReport": "Error On",
			"Connection": "Object reference not set to an instance of an object",
			"Severity": "Urgents",
			"Status": "Open",
			"Date": "21 in Oct. 2014",
			"EscalationStatus": "Yellow",
			"Owner": "rita.avni@hpe.com",
			"Resolution": "Fixing risk assessment: Hight/Medium/Low"
		}, {
			"name": "ALM12.52",
			"title": "QCIM7653420",
			"ExcelReport": "Error On",
			"Connection": "Object reference not set to an instance of an object",
			"Severity": "Urgents",
			"Status": "Open",
			"Date": "21 in Oct. 2014",
			"EscalationStatus": "Yellow",
			"Owner": "rita.avni@hpe.com",
			"Resolution": "Fixing risk assessment: Hight/Medium/Low"
		}, {
			"name": "ALM13.52",
			"title": "QCIM7653420",
			"ExcelReport": "Error On",
			"Connection": "Object reference not set to an instance of an object",
			"Severity": "Urgents",
			"Status": "Open",
			"Date": "21 in Oct. 2014",
			"EscalationStatus": "Yellow",
			"Owner": "rita.avni@hpe.com",
			"Resolution": "Fixing risk assessment: Hight/Medium/Low"
		}],
		"Support": [{
			"name": "ALM11.52",
			"title": "QCIM7653420",
			"ExcelReport": "Error On",
			"Connection": "Object reference not set to an instance of an object",
			"Severity": "Urgents",
			"Status": "Open",
			"Date": "21 in Oct. 2014",
			"EscalationStatus": "Yellow",
			"Owner": "rita.avni@hpe.com",
			"Resolution": "Fixing risk assessment: Hight/Medium/Low"
		}, {
			"name": "ALM12.52",
			"title": "QCIM7653420",
			"ExcelReport": "Error On",
			"Connection": "Object reference not set to an instance of an object",
			"Severity": "Urgents",
			"Status": "Open",
			"Date": "21 in Oct. 2014",
			"EscalationStatus": "Yellow",
			"Owner": "rita.avni@hpe.com",
			"Resolution": "Fixing risk assessment: Hight/Medium/Low"
		}, {
			"name": "ALM13.52",
			"title": "QCIM7653420",
			"ExcelReport": "Error On",
			"Connection": "Object reference not set to an instance of an object",
			"Severity": "Urgents",
			"Status": "Open",
			"Date": "21 in Oct. 2014",
			"EscalationStatus": "Yellow",
			"Owner": "rita.avni@hpe.com",
			"Resolution": "Fixing risk assessment: Hight/Medium/Low"
		}],
		"Contacts": [{
					"category": "HPE Stakeholders",
					"contacts": [{
						"name": "Rita Avni",
						"title": "R&D Program Manager",
						"Mail": "Ritaavni@gmail.com",
						"Phone": "0509888882"
					}, {
						"name": "Rita Avni1",
						"title": "R&D Program Manager",
						"Mail": "Ritaavni@gmail.com",
						"Phone": "0509888882"
					}, {
						"name": "Rita Avni2",
						"title": "R&D Program Manager",
						"Mail": "Ritaavni@gmail.com",
						"Phone": "0509888882"
					}, {
						"name": "Rita Avni3",
						"title": "R&D Program Manager",
						"Mail": "Ritaavni@gmail.com",
						"Phone": "0509888882"
					}, {
						"name": "Rita Avni4",
						"title": "R&D Program Manager",
						"Mail": "Ritaavni@gmail.com",
						"Phone": "0509888882"
					}]
				}, {
					"category": "HPE Stakeholders",
					"contacts": [{
						"name": "Rita Avni",
						"title": "R&D Program Manager",
						"Mail": "Ritaavni@gmail.com",
						"Phone": "0509888882"
					}, {
						"name": "Rita Avni1",
						"title": "R&D Program Manager",
						"Mail": "Ritaavni@gmail.com",
						"Phone": "0509888882"
					}, {
						"name": "Rita Avni2",
						"title": "R&D Program Manager",
						"Mail": "Ritaavni@gmail.com",
						"Phone": "0509888882"
					}, {
						"name": "Rita Avni3",
						"title": "R&D Program Manager",
						"Mail": "Ritaavni@gmail.com",
						"Phone": "0509888882"
					}, {
						"name": "Rita Avni4",
						"title": "R&D Program Manager",
						"Mail": "Ritaavni@gmail.com",
						"Phone": "0509888882"
					}]
				}, {
					"category": "HPE Stakeholders",
					"contacts": [{
						"name": "Rita Avni",
						"title": "R&D Program Manager",
						"Mail": "Ritaavni@gmail.com",
						"Phone": "0509888882"
					}, {
						"name": "Rita Avni1",
						"title": "R&D Program Manager",
						"Mail": "Ritaavni@gmail.com",
						"Phone": "0509888882"
					}, {
						"name": "Rita Avni2",
						"title": "R&D Program Manager",
						"Mail": "Ritaavni@gmail.com",
						"Phone": "0509888882"
					}, {
						"name": "Rita Avni3",
						"title": "R&D Program Manager",
						"Mail": "Ritaavni@gmail.com",
						"Phone": "0509888882"
					}, {
						"name": "Rita Avni4",
						"title": "R&D Program Manager",
						"Mail": "Ritaavni@gmail.com",
						"Phone": "0509888882"
					}]
				}]},
				{
		"id": "5",
		"image": "6",
		"name": "Shell",
		"title": "AMS - US Central",
		"Escalations": [],
		"CRs": [{
			"name": "ALM11.521",
			"title": "QCIM76534201",
			"ExcelReport": "Error On1",
			"Connection": "Object reference not set to an instance of an object",
			"Severity": "Urgents",
			"Status": "Open",
			"Date": "21 in Oct. 2014",
			"EscalationStatus": "Yellow",
			"Owner": "rita.avni@hpe.com",
			"Resolution": "Fixing risk assessment: Hight/Medium/Low"
		}, {
			"name": "ALM12.52",
			"title": "QCIM7653420",
			"ExcelReport": "Error On",
			"Connection": "Object reference not set to an instance of an object",
			"Severity": "Urgents",
			"Status": "Open",
			"Date": "21 in Oct. 2014",
			"EscalationStatus": "Yellow",
			"Owner": "rita.avni@hpe.com",
			"Resolution": "Fixing risk assessment: Hight/Medium/Low"
		}, {
			"name": "ALM13.52",
			"title": "QCIM7653420",
			"ExcelReport": "Error On",
			"Connection": "Object reference not set to an instance of an object",
			"Severity": "Urgents",
			"Status": "Open",
			"Date": "21 in Oct. 2014",
			"EscalationStatus": "Yellow",
			"Owner": "rita.avni@hpe.com",
			"Resolution": "Fixing risk assessment: Hight/Medium/Low"
		}],

		"Ers": [{
			"name": "ALM11.52",
			"title": "QCIM7653420",
			"ExcelReport": "Error On",
			"Connection": "Object reference not set to an instance of an object",
			"Severity": "Urgents",
			"Status": "Open",
			"Date": "21 in Oct. 2014",
			"EscalationStatus": "Yellow",
			"Owner": "rita.avni@hpe.com",
			"Resolution": "Fixing risk assessment: Hight/Medium/Low"
		}, {
			"name": "ALM12.52",
			"title": "QCIM7653420",
			"ExcelReport": "Error On",
			"Connection": "Object reference not set to an instance of an object",
			"Severity": "Urgents",
			"Status": "Open",
			"Date": "21 in Oct. 2014",
			"EscalationStatus": "Yellow",
			"Owner": "rita.avni@hpe.com",
			"Resolution": "Fixing risk assessment: Hight/Medium/Low"
		}, {
			"name": "ALM13.52",
			"title": "QCIM7653420",
			"ExcelReport": "Error On",
			"Connection": "Object reference not set to an instance of an object",
			"Severity": "Urgents",
			"Status": "Open",
			"Date": "21 in Oct. 2014",
			"EscalationStatus": "Yellow",
			"Owner": "rita.avni@hpe.com",
			"Resolution": "Fixing risk assessment: Hight/Medium/Low"
		}],
		"Support": [{
			"name": "ALM11.52",
			"title": "QCIM7653420",
			"ExcelReport": "Error On",
			"Connection": "Object reference not set to an instance of an object",
			"Severity": "Urgents",
			"Status": "Open",
			"Date": "21 in Oct. 2014",
			"EscalationStatus": "Yellow",
			"Owner": "rita.avni@hpe.com",
			"Resolution": "Fixing risk assessment: Hight/Medium/Low"
		}, {
			"name": "ALM12.52",
			"title": "QCIM7653420",
			"ExcelReport": "Error On",
			"Connection": "Object reference not set to an instance of an object",
			"Severity": "Urgents",
			"Status": "Open",
			"Date": "21 in Oct. 2014",
			"EscalationStatus": "Yellow",
			"Owner": "rita.avni@hpe.com",
			"Resolution": "Fixing risk assessment: Hight/Medium/Low"
		}, {
			"name": "ALM13.52",
			"title": "QCIM7653420",
			"ExcelReport": "Error On",
			"Connection": "Object reference not set to an instance of an object",
			"Severity": "Urgents",
			"Status": "Open",
			"Date": "21 in Oct. 2014",
			"EscalationStatus": "Yellow",
			"Owner": "rita.avni@hpe.com",
			"Resolution": "Fixing risk assessment: Hight/Medium/Low"
		}],
		"Contacts": [{
					"category": "HPE Stakeholders",
					"contacts": [{
						"name": "Rita Avni",
						"title": "R&D Program Manager",
						"Mail": "Ritaavni@gmail.com",
						"Phone": "0509888882"
					}, {
						"name": "Rita Avni1",
						"title": "R&D Program Manager",
						"Mail": "Ritaavni@gmail.com",
						"Phone": "0509888882"
					}, {
						"name": "Rita Avni2",
						"title": "R&D Program Manager",
						"Mail": "Ritaavni@gmail.com",
						"Phone": "0509888882"
					}, {
						"name": "Rita Avni3",
						"title": "R&D Program Manager",
						"Mail": "Ritaavni@gmail.com",
						"Phone": "0509888882"
					}, {
						"name": "Rita Avni4",
						"title": "R&D Program Manager",
						"Mail": "Ritaavni@gmail.com",
						"Phone": "0509888882"
					}]
				}, {
					"category": "HPE Stakeholders",
					"contacts": [{
						"name": "Rita Avni",
						"title": "R&D Program Manager",
						"Mail": "Ritaavni@gmail.com",
						"Phone": "0509888882"
					}, {
						"name": "Rita Avni1",
						"title": "R&D Program Manager",
						"Mail": "Ritaavni@gmail.com",
						"Phone": "0509888882"
					}, {
						"name": "Rita Avni2",
						"title": "R&D Program Manager",
						"Mail": "Ritaavni@gmail.com",
						"Phone": "0509888882"
					}, {
						"name": "Rita Avni3",
						"title": "R&D Program Manager",
						"Mail": "Ritaavni@gmail.com",
						"Phone": "0509888882"
					}, {
						"name": "Rita Avni4",
						"title": "R&D Program Manager",
						"Mail": "Ritaavni@gmail.com",
						"Phone": "0509888882"
					}]
				}, {
					"category": "HPE Stakeholders",
					"contacts": [{
						"name": "Rita Avni",
						"title": "R&D Program Manager",
						"Mail": "Ritaavni@gmail.com",
						"Phone": "0509888882"
					}, {
						"name": "Rita Avni1",
						"title": "R&D Program Manager",
						"Mail": "Ritaavni@gmail.com",
						"Phone": "0509888882"
					}, {
						"name": "Rita Avni2",
						"title": "R&D Program Manager",
						"Mail": "Ritaavni@gmail.com",
						"Phone": "0509888882"
					}, {
						"name": "Rita Avni3",
						"title": "R&D Program Manager",
						"Mail": "Ritaavni@gmail.com",
						"Phone": "0509888882"
					}, {
						"name": "Rita Avni4",
						"title": "R&D Program Manager",
						"Mail": "Ritaavni@gmail.com",
						"Phone": "0509888882"
					}]
				}]},{
		"id": "6",
		"image": "7",
		"name": "Walmart",
		"title": "AMS - US Central",
		"Escalations": [],
		"CRs": [{
			"name": "ALM11.521",
			"title": "QCIM76534201",
			"ExcelReport": "Error On1",
			"Connection": "Object reference not set to an instance of an object",
			"Severity": "Urgents",
			"Status": "Open",
			"Date": "21 in Oct. 2014",
			"EscalationStatus": "Yellow",
			"Owner": "rita.avni@hpe.com",
			"Resolution": "Fixing risk assessment: Hight/Medium/Low"
		}, {
			"name": "ALM12.52",
			"title": "QCIM7653420",
			"ExcelReport": "Error On",
			"Connection": "Object reference not set to an instance of an object",
			"Severity": "Urgents",
			"Status": "Open",
			"Date": "21 in Oct. 2014",
			"EscalationStatus": "Yellow",
			"Owner": "rita.avni@hpe.com",
			"Resolution": "Fixing risk assessment: Hight/Medium/Low"
		}, {
			"name": "ALM13.52",
			"title": "QCIM7653420",
			"ExcelReport": "Error On",
			"Connection": "Object reference not set to an instance of an object",
			"Severity": "Urgents",
			"Status": "Open",
			"Date": "21 in Oct. 2014",
			"EscalationStatus": "Yellow",
			"Owner": "rita.avni@hpe.com",
			"Resolution": "Fixing risk assessment: Hight/Medium/Low"
		}],

		"Ers": [{
			"name": "ALM11.52",
			"title": "QCIM7653420",
			"ExcelReport": "Error On",
			"Connection": "Object reference not set to an instance of an object",
			"Severity": "Urgents",
			"Status": "Open",
			"Date": "21 in Oct. 2014",
			"EscalationStatus": "Yellow",
			"Owner": "rita.avni@hpe.com",
			"Resolution": "Fixing risk assessment: Hight/Medium/Low"
		}, {
			"name": "ALM12.52",
			"title": "QCIM7653420",
			"ExcelReport": "Error On",
			"Connection": "Object reference not set to an instance of an object",
			"Severity": "Urgents",
			"Status": "Open",
			"Date": "21 in Oct. 2014",
			"EscalationStatus": "Yellow",
			"Owner": "rita.avni@hpe.com",
			"Resolution": "Fixing risk assessment: Hight/Medium/Low"
		}, {
			"name": "ALM13.52",
			"title": "QCIM7653420",
			"ExcelReport": "Error On",
			"Connection": "Object reference not set to an instance of an object",
			"Severity": "Urgents",
			"Status": "Open",
			"Date": "21 in Oct. 2014",
			"EscalationStatus": "Yellow",
			"Owner": "rita.avni@hpe.com",
			"Resolution": "Fixing risk assessment: Hight/Medium/Low"
		}],
		"Support": [{
			"name": "ALM11.52",
			"title": "QCIM7653420",
			"ExcelReport": "Error On",
			"Connection": "Object reference not set to an instance of an object",
			"Severity": "Urgents",
			"Status": "Open",
			"Date": "21 in Oct. 2014",
			"EscalationStatus": "Yellow",
			"Owner": "rita.avni@hpe.com",
			"Resolution": "Fixing risk assessment: Hight/Medium/Low"
		}, {
			"name": "ALM12.52",
			"title": "QCIM7653420",
			"ExcelReport": "Error On",
			"Connection": "Object reference not set to an instance of an object",
			"Severity": "Urgents",
			"Status": "Open",
			"Date": "21 in Oct. 2014",
			"EscalationStatus": "Yellow",
			"Owner": "rita.avni@hpe.com",
			"Resolution": "Fixing risk assessment: Hight/Medium/Low"
		}, {
			"name": "ALM13.52",
			"title": "QCIM7653420",
			"ExcelReport": "Error On",
			"Connection": "Object reference not set to an instance of an object",
			"Severity": "Urgents",
			"Status": "Open",
			"Date": "21 in Oct. 2014",
			"EscalationStatus": "Yellow",
			"Owner": "rita.avni@hpe.com",
			"Resolution": "Fixing risk assessment: Hight/Medium/Low"
		}],
		"Contacts": [{
					"category": "HPE Stakeholders",
					"contacts": [{
						"name": "Rita Avni",
						"title": "R&D Program Manager",
						"Mail": "Ritaavni@gmail.com",
						"Phone": "0509888882"
					}, {
						"name": "Rita Avni1",
						"title": "R&D Program Manager",
						"Mail": "Ritaavni@gmail.com",
						"Phone": "0509888882"
					}, {
						"name": "Rita Avni2",
						"title": "R&D Program Manager",
						"Mail": "Ritaavni@gmail.com",
						"Phone": "0509888882"
					}, {
						"name": "Rita Avni3",
						"title": "R&D Program Manager",
						"Mail": "Ritaavni@gmail.com",
						"Phone": "0509888882"
					}, {
						"name": "Rita Avni4",
						"title": "R&D Program Manager",
						"Mail": "Ritaavni@gmail.com",
						"Phone": "0509888882"
					}]
				}, {
					"category": "HPE Stakeholders",
					"contacts": [{
						"name": "Rita Avni",
						"title": "R&D Program Manager",
						"Mail": "Ritaavni@gmail.com",
						"Phone": "0509888882"
					}, {
						"name": "Rita Avni1",
						"title": "R&D Program Manager",
						"Mail": "Ritaavni@gmail.com",
						"Phone": "0509888882"
					}, {
						"name": "Rita Avni2",
						"title": "R&D Program Manager",
						"Mail": "Ritaavni@gmail.com",
						"Phone": "0509888882"
					}, {
						"name": "Rita Avni3",
						"title": "R&D Program Manager",
						"Mail": "Ritaavni@gmail.com",
						"Phone": "0509888882"
					}, {
						"name": "Rita Avni4",
						"title": "R&D Program Manager",
						"Mail": "Ritaavni@gmail.com",
						"Phone": "0509888882"
					}]
				}, {
					"category": "HPE Stakeholders",
					"contacts": [{
						"name": "Rita Avni",
						"title": "R&D Program Manager",
						"Mail": "Ritaavni@gmail.com",
						"Phone": "0509888882"
					}, {
						"name": "Rita Avni1",
						"title": "R&D Program Manager",
						"Mail": "Ritaavni@gmail.com",
						"Phone": "0509888882"
					}, {
						"name": "Rita Avni2",
						"title": "R&D Program Manager",
						"Mail": "Ritaavni@gmail.com",
						"Phone": "0509888882"
					}, {
						"name": "Rita Avni3",
						"title": "R&D Program Manager",
						"Mail": "Ritaavni@gmail.com",
						"Phone": "0509888882"
					}, {
						"name": "Rita Avni4",
						"title": "R&D Program Manager",
						"Mail": "Ritaavni@gmail.com",
						"Phone": "0509888882"
					}]
				}]}
				
				
				]